<?xml version="1.0" encoding="UTF-8" standalone="no"?>
<svg
   xmlns:dc="http://purl.org/dc/elements/1.1/"
   xmlns:cc="http://creativecommons.org/ns#"
   xmlns:rdf="http://www.w3.org/1999/02/22-rdf-syntax-ns#"
   xmlns:svg="http://www.w3.org/2000/svg"
   xmlns="http://www.w3.org/2000/svg"
   xmlns:sodipodi="http://sodipodi.sourceforge.net/DTD/sodipodi-0.dtd"
   xmlns:inkscape="http://www.inkscape.org/namespaces/inkscape"
   id="Capa_1"
   enable-background="new 0 0 512 512"
   height="128"
   viewBox="0 0 128 128"
   width="128"
   version="1.1"
   sodipodi:docname="iconwhite.svg"
   inkscape:version="0.92.4 (5da689c313, 2019-01-14)">
  <metadata
     id="metadata15">
    <rdf:RDF>
      <cc:Work
         rdf:about="">
        <dc:format>image/svg+xml</dc:format>
        <dc:type
           rdf:resource="http://purl.org/dc/dcmitype/StillImage" />
        <dc:title></dc:title>
      </cc:Work>
    </rdf:RDF>
  </metadata>
  <defs
     id="defs13" />
  <sodipodi:namedview
     pagecolor="#ffffff"
     bordercolor="#666666"
     borderopacity="1"
     objecttolerance="10"
     gridtolerance="10"
     guidetolerance="10"
     inkscape:pageopacity="0"
     inkscape:pageshadow="2"
     inkscape:window-width="1920"
     inkscape:window-height="1027"
     id="namedview11"
     showgrid="false"
     inkscape:zoom="1.84375"
     inkscape:cx="303.74403"
     inkscape:cy="159.183"
     inkscape:window-x="-8"
     inkscape:window-y="-8"
     inkscape:window-maximized="1"
     inkscape:current-layer="Capa_1" />
  <g
     id="g8"
     style="fill:#ffffff"
     transform="matrix(0.29034611,0,0,0.24195756,-11.288123,3.575356)">
    <path
       d="m 301,60 c -24.813,0 -45,20.187 -45,45 0,24.813 20.187,45 45,45 24.813,0 45,-20.187 45,-45 0,-24.813 -20.187,-45 -45,-45 z m 0,60 c -8.271,0 -15,-6.729 -15,-15 0,-8.271 6.729,-15 15,-15 8.271,0 15,6.729 15,15 0,8.271 -6.729,15 -15,15 z"
       id="path2"
       inkscape:connector-curvature="0"
       style="fill:#ffffff" />
    <path
       d="m 181,300 c -8.284,0 -15,6.716 -15,15 v 45 H 133.42 C 127.228,342.542 110.555,330 91,330 66.187,330 46,350.187 46,375 46,392.315 69.4,475.9 76.572,501.105 78.407,507.553 84.297,512 91,512 c 6.703,0 12.593,-4.447 14.428,-10.895 5.886,-20.685 22.698,-80.678 28.54,-111.105 H 166 v 45 c 0,8.284 6.716,15 15,15 h 150 c 8.284,0 15,-6.716 15,-15 v -45 h 32.032 c 5.842,30.427 22.654,90.42 28.54,111.105 1.835,6.448 7.725,10.895 14.428,10.895 6.703,0 12.593,-4.447 14.428,-10.895 C 442.6,475.9 466,392.315 466,375 c 0,-24.813 -20.187,-45 -45,-45 -19.555,0 -36.228,12.542 -42.42,30 H 346 v -45 c 0,-8.284 -6.716,-15 -15,-15 h -15 v -30 h 45 c 8.284,0 15,-6.716 15,-15 v -45 h 15 c 8.284,0 15,-6.716 15,-15 V 15 C 406,6.716 399.284,0 391,0 H 211 c -8.284,0 -15,6.716 -15,15 v 45 h -45 c -8.284,0 -15,6.716 -15,15 v 180 c 0,8.284 6.716,15 15,15 h 45 v 30 z M 91,440.339 C 82.506,408.18 76.057,381.142 76,375 c 0,-8.271 6.729,-15 15,-15 8.269,0 14.997,6.726 15,14.994 -0.057,6.144 -6.506,33.185 -15,65.345 z M 421,360 c 8.269,0 14.997,6.726 15,14.994 -0.057,6.144 -6.506,33.185 -15,65.345 -8.494,-32.16 -14.943,-59.197 -15,-65.339 0,-8.271 6.729,-15 15,-15 z M 226,30 H 376 V 180 H 226 Z M 166,240 V 90 h 30 v 105 c 0,8.284 6.716,15 15,15 h 135 v 30 z m 120,30 v 30 h -60 v -30 z m 30,60 v 90 H 196 v -90 z"
       id="path4"
       inkscape:connector-curvature="0"
       style="fill:#ffffff" />
    <path
       d="m 241,390 h 30 c 8.284,0 15,-6.716 15,-15 0,-8.284 -6.716,-15 -15,-15 h -30 c -8.284,0 -15,6.716 -15,15 0,8.284 6.716,15 15,15 z"
       id="path6"
       inkscape:connector-curvature="0"
       style="fill:#ffffff" />
  </g>
</svg>
